0.384615 0.564103 0.410256 0.410256 0.923077 0.4 0.1 0.3 0.8 0.6 0
0.8 0 0.025641 0 0 1 1 1 1 1 1 1 1 1 1 1 1 1 1 1 1;
0 0.2 0.5 0.9 0.1 0.6 0.6 0.9 0.6 0.9 0.3 0.8 0.3 0.9 0.3 0.5 1 1 1
1 1 1 1 1 1 1 1 1 1 1 1 1;
0 0.7 0.1 0.2 0.1 0.4 0.8 0.6 0.9 0.1 0.4 0.9 0.8 0.6 0.5 0.2 1 1 1
1 1 1 1 1 1 1 1 1 1 1 1 1;
