all fade 50 start 0 end 0.5 vol 1;
0 table live-0;
1 table live-1;
2 table live-2;
3 table live-3;
4 table live-4;
5 table live-5;
6 table live-6;
7 table live-7;
0 table voix-16;
1 table voix-9 speed 0.89 start 0.125 end 0.414;
2 table voix-7;
3 table voix-3;
4 table voix-4;
5 table voix-5;
6 table voix-6;
7 table voix-7;
0 table metal-5 start 0 end 0.5;
1 table metal-6 start 0 end 0.5 vol 0.5;
2 table metal-7 start 0 end 0.3;
3 table metal-8 start 0 end 0.5;
4 table metal-2 start 0 end 0.5;
5 table metal-9 start 0 end 0.5;
6 table metal-3 start 0 end 0.34 speed 0.92;
7 table metal-1 start 0 end 0.3 speed 0.9;
0 table synth-shortbass-0 speed 1;
1 table synth-shortbass-0 speed 0.96;
2 table synth-shortbass-1 speed 0.9;
3 table synth-shortbass-2 speed 1;
4 table synth-shortbass-3 speed 1;
5 table synth-shortbass-5 speed 1;
6 table synth-shortbass-6 speed 1;
7 table synth-shortbass-7 speed 0.96;
