all fade 50 start 0 end 1 vol 1;
0 table embellie-courts-7;
1 table embellie-courts-9;
2 table embellie-courts-10;
3 table embellie-courts-11;
4 table embellie-courts-15;
5 table embellie-courts-16;
0 table embellie-courts-11 speed 2.173;
1 table embellie-courts-10 speed 1.669;
2 table embellie-courts-18 end 0.2 speed 0.5;
3 table embellie-courts-10 end 0.5 speed 1.4;
4 table embellie-courts-15 end 0.5 speed 1.4;
5 table embellie-courts-16 end 0.5 speed 1.4;
0 table embellie-courts-21 speed 1 vol 0.8;
1 table embellie-courts-22 end 0.8 speed 0.9 fade 100 vol 0.6;
2 table embellie-courts-21 end 0.5 speed -2 fade 100 vol 0.35;
3 table embellie-courts-24 speed -2.33 fade 100 vol 0.55;
4 table embellie-courts-15 speed -2.33 fade 100 vol 0.55;
5 table embellie-courts-16 speed -2.33 fade 100 vol 0.55;
